{
  "photos": {
    "page": 1,
    "pages": 50,
    "perpage": 10,
    "total": 500,
    "photo": [
      {
        "id": "52328546498",
        "owner": "114799538@N08",
        "secret": "0a61ae3a69",
        "server": "65535",
        "farm": 66,
        "title": "Nature heals soul ( Reverence Part II )",
        "ispublic": 1,
        "isfriend": 0,
        "isfamily": 0
      },
      {
        "id": "52327403470",
        "owner": "12090378@N05",
        "secret": "3628d37b56",
        "server": "65535",
        "farm": 66,
        "title": "Saibiko pinua EXPLORE#2",
        "ispublic": 1,
        "isfriend": 0,
        "isfamily": 0
      },
      {
        "id": "52328845859",
        "owner": "142581467@N05",
        "secret": "9e77cea7f2",
        "server": "65535",
        "farm": 66,
        "title": "Evil Sauron Is Somewhere Out There!",
        "ispublic": 1,
        "isfriend": 0,
        "isfamily": 0
      },
      {
        "id": "52328643078",
        "owner": "31779113@N06",
        "secret": "363b8e53c0",
        "server": "65535",
        "farm": 66,
        "title": "A Mysterious Place With No Name",
        "ispublic": 1,
        "isfriend": 0,
        "isfamily": 0
      },
      {
        "id": "52328291431",
        "owner": "143544746@N07",
        "secret": "6c543cc1c4",
        "server": "65535",
        "farm": 66,
        "title": "Stone path",
        "ispublic": 1,
        "isfriend": 0,
        "isfamily": 0
      },
      {
        "id": "52328519584",
        "owner": "39652177@N04",
        "secret": "ba624974d4",
        "server": "65535",
        "farm": 66,
        "title": "Rufous hummingbird",
        "ispublic": 1,
        "isfriend": 0,
        "isfamily": 0
      },
      {
        "id": "52329401703",
        "owner": "155613149@N04",
        "secret": "90db0d6070",
        "server": "65535",
        "farm": 66,
        "title": "Tevno lake 2512m(Explored)",
        "ispublic": 1,
        "isfriend": 0,
        "isfamily": 0
      },
      {
        "id": "52326723258",
        "owner": "92714920@N04",
        "secret": "447ff49af8",
        "server": "65535",
        "farm": 66,
        "title": "Campos de La Mancha. Alcubillas, Ciudad Real. IN EXPLORE.",
        "ispublic": 1,
        "isfriend": 0,
        "isfamily": 0
      },
      {
        "id": "52325714932",
        "owner": "119400285@N07",
        "secret": "bbd9f6ba6f",
        "server": "65535",
        "farm": 66,
        "title": "Boatman",
        "ispublic": 1,
        "isfriend": 0,
        "isfamily": 0
      },
      {
        "id": "52327143139",
        "owner": "138486769@N02",
        "secret": "1df7114684",
        "server": "65535",
        "farm": 66,
        "title": "Alone in the world - Stjórnarfoss Iceland",
        "ispublic": 1,
        "isfriend": 0,
        "isfamily": 0
      }
    ]
  },
  "extra": {
    "explore_date": "2022-09-02",
    "next_prelude_interval": 46396
  },
  "stat": "ok"
}
